<?xml version="1.0" encoding="utf-8"?>
<COLLADA xmlns="http://www.collada.org/2005/11/COLLADASchema" version="1.4.1">
  <asset>
    <contributor>
      <author>Blender User</author>
      <authoring_tool>Blender 2.70.0 commit date:2014-03-19, commit time:05:02, hash:19e627c</authoring_tool>
    </contributor>
    <created>2014-12-18T16:13:57</created>
    <modified>2014-12-18T16:13:57</modified>
    <unit name="meter" meter="1"/>
    <up_axis>Z_UP</up_axis>
  </asset>
  <library_images/>
  <library_geometries>
    <geometry id="Fluid_Mug_003-mesh" name="Fluid Mug.003">
      <mesh>
        <source id="Fluid_Mug_003-mesh-positions">
          <float_array id="Fluid_Mug_003-mesh-positions-array" count="390">-0.1950888 0 -0.9807856 0 0 -1 0 2.153104 -0.9999998 -0.1950888 2.153104 -0.9807854 -0.3826821 0 -0.9238801 -0.3826821 2.153104 -0.9238799 -0.5555691 0 -0.8314704 -0.5555691 2.153104 -0.8314702 -0.7071059 0 -0.7071077 -0.7071059 2.153104 -0.7071076 -0.8314689 0 -0.5555713 -0.8314689 2.153104 -0.5555711 -0.9238791 0 -0.3826845 -0.9238791 2.153104 -0.3826843 -0.9807851 0 -0.1950913 -0.9807851 2.153104 -0.1950911 -1 0 -9.65599e-7 -1 2.153104 -8.03044e-7 -0.9807854 0 0.1950893 -0.9807854 2.153104 0.1950896 -0.9238799 0 0.3826827 -0.9238799 2.153104 0.3826828 -0.83147 0 0.5555697 -0.83147 2.153104 0.5555698 -0.7071073 0 0.7071063 -0.7071073 2.153104 0.7071065 -0.5555707 0 0.8314693 -0.5555707 2.153104 0.8314695 -0.3826839 0 0.9238794 -0.3826839 2.153104 0.9238796 -0.1950907 0 0.9807852 -0.1950907 2.153104 0.9807854 -3.25841e-7 0 1 -3.25841e-7 2.153104 1 0.1950901 0 0.9807853 0.1950901 2.153104 0.9807855 0.3826833 0 0.9238796 0.3826833 2.153104 0.9238798 0.5555702 0 0.8314697 0.5555702 2.153104 0.8314698 0.7071068 0 0.7071068 0.7071068 2.153104 0.707107 0.8314697 0 0.5555702 0.8314697 2.153104 0.5555704 0.9238796 0 0.3826833 0.9238796 2.153104 0.3826834 0.9807853 0 0.1950902 0.9807853 2.153104 0.1950904 1 0 0 1 2.153104 0 0.9807853 0 -0.1950902 0.9807853 2.153104 -0.1950902 0.9238796 0 -0.3826834 0.9238796 2.153104 -0.3826833 0.8314696 0 -0.5555702 0.8314696 2.153104 -0.55557 0.7071068 0 -0.7071068 0.7071068 2.153104 -0.7071066 0.5555703 0 -0.8314696 0.5555703 2.153104 -0.8314694 0.3826835 0 -0.9238796 0.3826835 2.153104 -0.9238794 0.1950902 0 -0.9807853 0.1950902 2.153104 -0.9807851 0 2.153104 -0.8585486 0.1674945 2.153104 -0.8420518 0.3285524 2.153104 -0.7931955 0.4769842 2.153104 -0.713857 0.6070857 2.153104 -0.6070855 0.7138572 2.153104 -0.476984 0.7931956 2.153104 -0.3285523 0.8420519 2.153104 -0.1674944 0.8585487 2.153104 0 0.842052 2.153104 0.1674945 0.7931956 2.153104 0.3285523 0.7138572 2.153104 0.4769842 0.6070856 2.153104 0.6070857 0.4769841 2.153104 0.7138574 0.3285523 2.153104 0.7931957 0.1674942 2.153104 0.8420521 -2.62954e-7 2.153104 0.8585488 -0.1674948 2.153104 0.842052 -0.3285527 2.153104 0.7931956 -0.4769845 2.153104 0.713857 -0.607086 2.153104 0.6070854 -0.7138575 2.153104 0.4769837 -0.7931959 2.153104 0.3285518 -0.8420521 2.153104 0.1674939 -0.8585487 2.153104 -7.08088e-7 -0.8420518 2.153104 -0.1674953 -0.7931952 2.153104 -0.3285531 -0.7138566 2.153104 -0.4769849 -0.6070848 2.153104 -0.6070863 -0.4769831 2.153104 -0.7138577 -0.3285512 2.153104 -0.7931959 -0.1674932 2.153104 -0.8420521 0 0.8162998 -0.8572085 -0.1674932 0.8162998 -0.840712 -0.3285512 0.8162998 -0.7918558 -0.4769831 0.8162998 -0.7125175 -0.6070848 0.8162998 -0.6057462 -0.7138566 0.8162998 -0.4756447 -0.7931952 0.8162998 -0.327213 -0.8420518 0.8162998 -0.1661551 -0.8585487 0.8162996 0.001339375 -0.8420521 0.8162996 0.168834 -0.7931959 0.8162996 0.329892 -0.7138575 0.8162996 0.4783239 -0.607086 0.8162996 0.6084256 -0.4769845 0.8162996 0.7151972 -0.3285527 0.8162996 0.7945358 -0.1674948 0.8162996 0.8433921 -2.62954e-7 0.8162996 0.8598889 0.1674942 0.8162996 0.8433923 0.3285523 0.8162996 0.7945359 0.4769841 0.8162996 0.7151975 0.6070856 0.8162996 0.6084259 0.7138572 0.8162996 0.4783242 0.7931956 0.8162996 0.3298925 0.842052 0.8162996 0.1688346 0.8585487 0.8162996 0.00134027 0.8420519 0.8162998 -0.1661542 0.7931956 0.8162998 -0.3272121 0.7138572 0.8162998 -0.4756438 0.6070857 0.8162998 -0.6057454 0.4769842 0.8162998 -0.7125169 0.3285524 0.8162998 -0.7918554 0.1674945 0.8162998 -0.8407116 1.47615e-7 0.8162996 0.001339972 1.66707e-7 0 -3.01749e-7</float_array>
          <technique_common>
            <accessor source="#Fluid_Mug_003-mesh-positions-array" count="130" stride="3">
              <param name="X" type="float"/>
              <param name="Y" type="float"/>
              <param name="Z" type="float"/>
            </accessor>
          </technique_common>
        </source>
        <source id="Fluid_Mug_003-mesh-normals">
          <float_array id="Fluid_Mug_003-mesh-normals-array" count="390">-0.1420026 -0.6856899 -0.713889 0 0.6856899 -0.7278665 0 -0.6856899 -0.7278665 -0.1420026 0.6856899 -0.713889 -0.2785424 -0.6856899 -0.6724753 -0.2785424 0.6856899 -0.6724753 -0.4043703 -0.6856899 -0.6052126 -0.4043703 0.6856899 -0.6052126 -0.5146642 -0.6856899 -0.5146947 -0.5146642 0.6856899 -0.5146947 -0.6052126 -0.6856899 -0.4043703 -0.6052126 0.6856899 -0.4043703 -0.6724753 -0.6856899 -0.2785424 -0.6724753 0.6856899 -0.2785424 -0.713889 -0.6856899 -0.1420026 -0.713889 0.6856899 -0.1420026 -0.7278665 -0.6856899 0 -0.7278665 0.6856899 0 -0.713889 -0.6856899 0.1420026 -0.713889 0.6856899 0.1420026 -0.6724753 -0.6856899 0.2785424 -0.6724753 0.6856899 0.2785424 -0.6052126 -0.6856899 0.4043703 -0.6052126 0.6856899 0.4043703 -0.5146642 -0.6856899 0.5146642 -0.5146947 0.6856899 0.5146642 -0.4043703 -0.6856899 0.6052126 -0.4043703 0.6856899 0.6052126 -0.2785424 -0.6856899 0.6724753 -0.2785424 0.6856899 0.6724753 -0.1420026 -0.6856899 0.713889 -0.1420026 0.6856899 0.713889 0 -0.6856899 0.7278665 0 0.6856899 0.7278665 0.1420026 -0.6856899 0.713889 0.1420026 0.6856899 0.713889 0.2785424 -0.6856899 0.6724753 0.2785424 0.6856899 0.6724753 0.4043703 -0.6856899 0.6052126 0.4043703 0.6856899 0.6052126 0.5146642 -0.6856899 0.5146642 0.5146642 0.6856899 0.5146642 0.6052126 -0.6856899 0.4043703 0.6052126 0.6856899 0.4043703 0.6724753 -0.6856899 0.2785424 0.6724753 0.6856899 0.2785424 0.713889 -0.6856899 0.1420026 0.713889 0.6856899 0.1420026 0.7278665 -0.6856899 0 0.7278665 0.6856899 0 0.713889 -0.6856899 -0.1420026 0.713889 0.6856899 -0.1420026 0.6724753 -0.6856899 -0.2785424 0.6724753 0.6856899 -0.2785424 0.6052126 -0.6856899 -0.4043703 0.6052126 0.6856899 -0.4043703 0.5146642 -0.6856899 -0.5146642 0.5146642 0.6856899 -0.5146642 0.4043703 -0.6856899 -0.6052126 0.4043703 0.6856899 -0.6052126 0.2785424 -0.6856899 -0.6724753 0.2785424 0.6856899 -0.6724753 0.1420026 -0.6856899 -0.713889 0.1420026 0.6856899 -0.713889 0 0.7301859 0.6832179 -0.1332743 0.7301554 0.6700949 -0.2614521 0.7301554 0.6312448 -0.3795892 0.7301248 0.5681326 -0.483169 0.7300638 0.4831995 -0.5681936 0.7300333 0.3796808 -0.631428 0.7299723 0.2615742 -0.6703696 0.7299112 0.1333659 -0.6835841 0.7298197 3.05185e-5 -0.6705222 0.7297586 -0.1333354 -0.6317026 0.7296976 -0.2616047 -0.5685598 0.7296366 -0.3798639 -0.4835658 0.729606 -0.4835352 -0.3799554 0.729545 -0.5686209 -0.2617267 0.7295145 -0.6318553 -0.1334269 0.7294839 -0.6707968 0 0.7294839 -0.6839503 0.1334269 0.7294839 -0.6707968 0.2617267 0.7295145 -0.6318553 0.3799554 0.729545 -0.5686209 0.4835658 0.729606 -0.4835352 0.5685598 0.7296366 -0.3798639 0.6317026 0.7296976 -0.2616047 0.6705222 0.7297586 -0.1333354 0.6835841 0.7298197 3.05185e-5 0.6703696 0.7299112 0.1333659 0.631428 0.7299723 0.2615742 0.5681936 0.7300333 0.3796808 0.483169 0.7300638 0.4831995 0.3795892 0.7301248 0.5681326 0.2614521 0.7301554 0.6312448 0.1332743 0.7301554 0.6700949 0 0.6860561 0.7275307 0.1419416 0.6860256 0.7135533 0.2784203 0.6860256 0.6721702 0.4042482 0.6859951 0.6049379 0.5145421 0.685934 0.514481 0.60506 0.685873 0.4042482 0.6723533 0.6858119 0.2784509 0.7138279 0.6857509 0.1419416 0.7278665 0.6856899 -3.05185e-5 0.71395 0.6855983 -0.1420331 0.6725669 0.6855373 -0.278634 0.6053346 0.6854763 -0.4045228 0.5148168 0.6854152 -0.5148778 0.4045228 0.6853847 -0.6054567 0.278634 0.6853542 -0.67275 0.1420331 0.6853237 -0.7142247 0 0.6853237 -0.7282022 -0.1420331 0.6853237 -0.7142247 -0.278634 0.6853542 -0.67275 -0.4045228 0.6853847 -0.6054567 -0.5148168 0.6854152 -0.5148778 -0.6053346 0.6854763 -0.4045228 -0.6725669 0.6855373 -0.278634 -0.71395 0.6855983 -0.1420331 -0.7278665 0.6856899 -3.05185e-5 -0.7138279 0.6857509 0.1419416 -0.6723533 0.6858119 0.2784509 -0.60506 0.685873 0.4042482 -0.5145421 0.685934 0.514481 -0.4042482 0.6859951 0.6049379 -0.2784203 0.6860256 0.6721702 -0.1419416 0.6860256 0.7135533 0 1 0 0 -1 0</float_array>
          <technique_common>
            <accessor source="#Fluid_Mug_003-mesh-normals-array" count="130" stride="3">
              <param name="X" type="float"/>
              <param name="Y" type="float"/>
              <param name="Z" type="float"/>
            </accessor>
          </technique_common>
        </source>
        <vertices id="Fluid_Mug_003-mesh-vertices">
          <input semantic="POSITION" source="#Fluid_Mug_003-mesh-positions"/>
        </vertices>
        <polylist count="256">
          <input semantic="VERTEX" source="#Fluid_Mug_003-mesh-vertices" offset="0"/>
          <input semantic="NORMAL" source="#Fluid_Mug_003-mesh-normals" offset="1"/>
          <vcount>3 3 3 3 3 3 3 3 3 3 3 3 3 3 3 3 3 3 3 3 3 3 3 3 3 3 3 3 3 3 3 3 3 3 3 3 3 3 3 3 3 3 3 3 3 3 3 3 3 3 3 3 3 3 3 3 3 3 3 3 3 3 3 3 3 3 3 3 3 3 3 3 3 3 3 3 3 3 3 3 3 3 3 3 3 3 3 3 3 3 3 3 3 3 3 3 3 3 3 3 3 3 3 3 3 3 3 3 3 3 3 3 3 3 3 3 3 3 3 3 3 3 3 3 3 3 3 3 3 3 3 3 3 3 3 3 3 3 3 3 3 3 3 3 3 3 3 3 3 3 3 3 3 3 3 3 3 3 3 3 3 3 3 3 3 3 3 3 3 3 3 3 3 3 3 3 3 3 3 3 3 3 3 3 3 3 3 3 3 3 3 3 3 3 3 3 3 3 3 3 3 3 3 3 3 3 3 3 3 3 3 3 3 3 3 3 3 3 3 3 3 3 3 3 3 3 3 3 3 3 3 3 3 3 3 3 3 3 3 3 3 3 3 3 3 3 3 3 3 3 3 3 3 3 3 3 </vcount>
          <p>0 0 2 1 1 2 2 1 0 0 3 3 0 0 4 4 5 5 5 5 3 3 0 0 4 4 6 6 7 7 7 7 5 5 4 4 8 8 7 7 6 6 7 7 8 8 9 9 8 8 10 10 11 11 11 11 9 9 8 8 12 12 11 11 10 10 11 11 12 12 13 13 12 12 14 14 15 15 15 15 13 13 12 12 14 14 16 16 17 17 17 17 15 15 14 14 18 18 17 17 16 16 17 17 18 18 19 19 18 18 20 20 21 21 21 21 19 19 18 18 20 20 22 22 23 23 23 23 21 21 20 20 22 22 24 24 25 25 25 25 23 23 22 22 26 26 25 25 24 24 25 25 26 26 27 27 28 28 27 27 26 26 27 27 28 28 29 29 28 28 30 30 31 31 31 31 29 29 28 28 30 30 32 32 33 33 33 33 31 31 30 30 34 34 33 33 32 32 33 33 34 34 35 35 36 36 35 35 34 34 35 35 36 36 37 37 38 38 37 37 36 36 37 37 38 38 39 39 38 38 40 40 41 41 41 41 39 39 38 38 42 42 41 41 40 40 41 41 42 42 43 43 42 42 44 44 45 45 45 45 43 43 42 42 46 46 45 45 44 44 45 45 46 46 47 47 48 48 47 47 46 46 47 47 48 48 49 49 50 50 49 49 48 48 49 49 50 50 51 51 50 50 52 52 53 53 53 53 51 51 50 50 54 54 53 53 52 52 53 53 54 54 55 55 56 56 55 55 54 54 55 55 56 56 57 57 58 58 57 57 56 56 57 57 58 58 59 59 60 60 59 59 58 58 59 59 60 60 61 61 62 62 61 61 60 60 61 61 62 62 63 63 62 62 1 2 2 1 2 1 63 63 62 62 63 63 2 1 64 64 64 64 65 65 63 63 63 63 66 66 61 61 66 66 63 63 65 65 61 61 67 67 59 59 67 67 61 61 66 66 59 59 68 68 57 57 68 68 59 59 67 67 57 57 69 69 55 55 69 69 57 57 68 68 55 55 70 70 53 53 70 70 55 55 69 69 51 51 53 53 70 70 70 70 71 71 51 51 51 51 72 72 49 49 72 72 51 51 71 71 49 49 73 73 47 47 73 73 49 49 72 72 47 47 74 74 45 45 74 74 47 47 73 73 43 43 45 45 74 74 74 74 75 75 43 43 43 43 76 76 41 41 76 76 43 43 75 75 39 39 41 41 76 76 76 76 77 77 39 39 39 39 78 78 37 37 78 78 39 39 77 77 37 37 79 79 35 35 79 79 37 37 78 78 35 35 80 80 33 33 80 80 35 35 79 79 31 31 33 33 80 80 80 80 81 81 31 31 29 29 31 31 81 81 81 81 82 82 29 29 29 29 83 83 27 27 83 83 29 29 82 82 27 27 84 84 25 25 84 84 27 27 83 83 23 23 25 25 84 84 84 84 85 85 23 23 21 21 23 23 85 85 85 85 86 86 21 21 19 19 21 21 86 86 86 86 87 87 19 19 19 19 88 88 17 17 88 88 19 19 87 87 15 15 17 17 88 88 88 88 89 89 15 15 13 13 15 15 89 89 89 89 90 90 13 13 13 13 91 91 11 11 91 91 13 13 90 90 9 9 11 11 91 91 91 91 92 92 9 9 9 9 93 93 7 7 93 93 9 9 92 92 5 5 7 7 93 93 93 93 94 94 5 5 3 3 5 5 94 94 94 94 95 95 3 3 3 3 64 64 2 1 64 64 3 3 95 95 95 95 96 96 64 64 96 96 95 95 97 97 95 95 94 94 98 98 98 98 97 97 95 95 94 94 93 93 99 99 99 99 98 98 94 94 92 92 99 99 93 93 99 99 92 92 100 100 92 92 91 91 101 101 101 101 100 100 92 92 90 90 101 101 91 91 101 101 90 90 102 102 90 90 89 89 103 103 103 103 102 102 90 90 89 89 88 88 104 104 104 104 103 103 89 89 87 87 104 104 88 88 104 104 87 87 105 105 87 87 86 86 106 106 106 106 105 105 87 87 86 86 85 85 107 107 107 107 106 106 86 86 85 85 84 84 108 108 108 108 107 107 85 85 83 83 108 108 84 84 108 108 83 83 109 109 82 82 109 109 83 83 109 109 82 82 110 110 82 82 81 81 111 111 111 111 110 110 82 82 81 81 80 80 112 112 112 112 111 111 81 81 79 79 112 112 80 80 112 112 79 79 113 113 78 78 113 113 79 79 113 113 78 78 114 114 77 77 114 114 78 78 114 114 77 77 115 115 77 77 76 76 116 116 116 116 115 115 77 77 75 75 116 116 76 76 116 116 75 75 117 117 75 75 74 74 118 118 118 118 117 117 75 75 73 73 118 118 74 74 118 118 73 73 119 119 72 72 119 119 73 73 119 119 72 72 120 120 71 71 120 120 72 72 120 120 71 71 121 121 71 71 70 70 122 122 122 122 121 121 71 71 69 69 122 122 70 70 122 122 69 69 123 123 68 68 123 123 69 69 123 123 68 68 124 124 67 67 124 124 68 68 124 124 67 67 125 125 66 66 125 125 67 67 125 125 66 66 126 126 65 65 126 126 66 66 126 126 65 65 127 127 65 65 64 64 96 96 96 96 127 127 65 65 127 127 96 96 128 128 127 127 128 128 126 126 126 126 128 128 125 125 125 125 128 128 124 124 124 124 128 128 123 123 123 123 128 128 122 122 121 121 122 122 128 128 121 121 128 128 120 120 120 120 128 128 119 119 119 119 128 128 118 118 117 117 118 118 128 128 117 117 128 128 116 116 115 115 116 116 128 128 115 115 128 128 114 114 114 114 128 128 113 113 113 113 128 128 112 112 111 111 112 112 128 128 110 110 111 111 128 128 110 110 128 128 109 109 109 109 128 128 108 108 107 107 108 108 128 128 106 106 107 107 128 128 105 105 106 106 128 128 105 105 128 128 104 104 103 103 104 104 128 128 102 102 103 103 128 128 102 102 128 128 101 101 100 100 101 101 128 128 100 100 128 128 99 99 98 98 99 99 128 128 97 97 98 98 128 128 97 97 128 128 96 96 1 2 129 129 0 0 4 4 0 0 129 129 6 6 4 4 129 129 6 6 129 129 8 8 10 10 8 8 129 129 10 10 129 129 12 12 14 14 12 12 129 129 16 16 14 14 129 129 16 16 129 129 18 18 20 20 18 18 129 129 22 22 20 20 129 129 24 24 22 22 129 129 24 24 129 129 26 26 26 26 129 129 28 28 30 30 28 28 129 129 32 32 30 30 129 129 32 32 129 129 34 34 34 34 129 129 36 36 36 36 129 129 38 38 40 40 38 38 129 129 40 40 129 129 42 42 44 44 42 42 129 129 44 44 129 129 46 46 46 46 129 129 48 48 48 48 129 129 50 50 52 52 50 50 129 129 52 52 129 129 54 54 54 54 129 129 56 56 56 56 129 129 58 58 58 58 129 129 60 60 60 60 129 129 62 62 1 2 62 62 129 129</p>
        </polylist>
      </mesh>
    </geometry>
  </library_geometries>
  <library_controllers/>
  <library_visual_scenes>
    <visual_scene id="Scene" name="Scene">
      <node id="Fluid_Mug" name="Fluid_Mug" type="NODE">
        <matrix sid="transform">0.05 0 0 0 0 -3.19879e-8 -0.05 0 0 0.05 -3.19879e-8 0 0 0 0 1</matrix>
        <instance_geometry url="#Fluid_Mug_003-mesh"/>
      </node>
    </visual_scene>
  </library_visual_scenes>
  <scene>
    <instance_visual_scene url="#Scene"/>
  </scene>
</COLLADA>